<?xml version="1.0" encoding="UTF-8" standalone="no"?>
<svg
   xmlns:dc="http://purl.org/dc/elements/1.1/"
   xmlns:cc="http://creativecommons.org/ns#"
   xmlns:rdf="http://www.w3.org/1999/02/22-rdf-syntax-ns#"
   xmlns:svg="http://www.w3.org/2000/svg"
   xmlns="http://www.w3.org/2000/svg"
   xmlns:sodipodi="http://sodipodi.sourceforge.net/DTD/sodipodi-0.dtd"
   xmlns:inkscape="http://www.inkscape.org/namespaces/inkscape"
   sodipodi:docname="advanced-f10.svg"
   inkscape:version="1.0beta1 (459877fba3, 2019-11-14)"
   sodipodi:version="0.32"
   id="svg2127"
   viewBox="0 0 300 85"
   height="85"
   width="300"
   version="1.1">
  <defs
     id="defs3" />
  <sodipodi:namedview
     inkscape:window-maximized="0"
     inkscape:window-y="27"
     inkscape:window-x="54"
     inkscape:window-height="1053"
     inkscape:window-width="1866"
     inkscape:guide-bbox="true"
     showguides="true"
     units="px"
     showgrid="false"
     inkscape:document-rotation="0"
     inkscape:current-layer="layer1"
     inkscape:document-units="px"
     inkscape:cy="31.400917"
     inkscape:cx="368.81379"
     inkscape:zoom="1.4"
     inkscape:pageshadow="2"
     inkscape:pageopacity="0.0"
     borderopacity="1.0"
     bordercolor="#666666"
     pagecolor="#ffffff"
     id="base"
     inkscape:lockguides="true" />
  <metadata
     id="metadata4">
    <rdf:RDF>
      <cc:Work
         rdf:about="">
        <dc:format>image/svg+xml</dc:format>
        <dc:type
           rdf:resource="http://purl.org/dc/dcmitype/StillImage" />
        <dc:title />
      </cc:Work>
    </rdf:RDF>
  </metadata>
  <g
     id="layer1"
     inkscape:groupmode="layer"
     inkscape:label="Layer 1">
    <path
       inkscape:connector-curvature="0"
       style="fill:none;fill-opacity:0.75;fill-rule:evenodd;stroke:#ff0100;stroke-width:0.675"
       d="m 106.27472,0.4544145 c -0.10112,0.1152 -0.14628,0.129 -0.29492,0.3809 -3.88068,6.5756 -5.68998,15.3218995 -6.761718,23.5057995 -2.20009,16.8 5.625338,36.5739 21.996078,42.7032 7.96891,2.8582 13.09924,5.0208 16.58985,7.3613 3.11461,2.0883 4.88089,4.3803 6.14453,7.3164 0.83628,-3.3298 2.16118,-5.698 4.11133,-7.1973 2.17118,-1.6691 5.03093,-2.3008 8.60742,-2.3183 8.16025,-0.04 14.63139,4.8099 20.45898,9.205 3.11458,2.349 7.25187,3.2345 11.00195,2.6153 3.75009,-0.6193 7.09279,-2.7204 8.71094,-6.336 1.62763,-3.6366 1.00183,-7.3141 -0.78906,-10.666 -1.79089,-3.3519 -4.75806,-6.3445 -7.73633,-8.4746 -7.49203,-5.3587 -17.33148,-5.609 -25.74414,-2.1738 -3.33898,1.3634 -6.19453,4.1375 -9.0957,6.6406 -2.90118,2.5031 -5.87561,4.7546 -9.50977,4.8887 -3.85909,0.1425 -8.09183,-1.0526 -11.38281,-3.666 -3.29098,-2.6135 -5.62109,-6.6662 -5.62109,-12.1368 a 0.39691188,0.39691188 0 0 1 0.39648,-0.3964 c 3.0726,0 8.01219,0.5596 13.49023,0.9355 5.47805,0.376 11.48443,0.5678 16.61133,-0.1504 8.1781,-1.1457 17.34466,-5.8907 21.26367,-13.5996 3.78154,-7.4384 10.47399,-16.43 22.70118,-18.6777 -10.73648,-0.4389 -19.3663,-0.4494 -27.27149,0.4394 -3.89113,0.4375 -6.53977,2.3824 -8.34961,5.1133 -1.80984,2.7309 -2.7533,6.2608 -3.11328,9.7832 -0.46666,4.5663 -3.49453,7.8367 -7.37305,9.8164 -3.87851,1.9797 -8.62214,2.711 -12.6914,2.2559 -3.23741,-0.362 -6.90912,-0.9975 -9.99414,-2.5391 -3.08503,-1.5416 -5.58946,-4.0329 -6.35157,-8 -0.29262,-1.5232 0.12629,-3.2173 0.9043,-4.7988 0.77801,-1.5815 1.92412,-3.0553 3.17188,-4.125 1.24776,-1.0697 2.60092,-1.764 3.85937,-1.6465 0.62923,0.059 1.2247,0.3446 1.6875,0.8652 0.4628,0.5207 0.79856,1.2598 1,2.2383 0.74509,3.6194 3.46741,6.2523 6.16016,6.9883 1.34637,0.368 2.66742,0.2684 3.76367,-0.377 1.09625,-0.6453 1.99873,-1.8478 2.45703,-3.8085 1.70464,-7.293 -3.73739,-14.3045 -10.66992,-16.5 -4.45898,-1.4122 -9.93973,-0.3002 -14,2.3183 -4.06027,2.6185 -6.66497,6.662 -5.61914,11.1504 0.36975,1.5869 0.35132,2.788 -0.002,3.6758 -0.35328,0.8877 -1.076,1.4223 -1.91602,1.5879 -1.68004,0.3311 -3.81473,-0.579 -5.59766,-2.0547 -7.05648,-5.8407 -7.30725,-15.5782 -6.39061,-23.664099 0.10448,-0.9216 0.59178,-3.3392005 0.91601,-5.4863005 0.16212,-1.0735 0.28212,-2.0765 0.29297,-2.7344 0.002,-0.1312 -0.0143,-0.158 -0.0215,-0.2578 z"
       id="path1527-8" />
  </g>
</svg>
